…
# Installing the package

‘rdrsimulate’ can be installed from GitHub with the ‘devtools’ package:

``` r
devtools::install_github("wilkox/rdrsimulate")
```

# Generating a simulated community

``` r
library(rdrsimulate)
comm <- generate_community(n = 1000)
comm
#> # A tibble: 1,000 x 8
#>      OTU met_state rDNA_abund rDNA_relabund ribo_amp rRNA_abund
#>    <int> <chr>          <int>         <dbl>    <int>      <int>
#>  1     1 growing            1        0.0490     2386       2386
#>  2     2 growing            2        0.0980     2382       4764
#>  3     3 growing            1        0.0490     7684       7684
#>  4     4 growing            8        0.392      9844      78752
#>  5     5 stationa…          5        0.245       900       4500
#>  6     6 dormant            2        0.0980      100        200
#>  7     7 growing            1        0.0490     2823       2823
#>  8     8 stationa…          1        0.0490      402        402
#>  9     9 growing            2        0.0980     6789      13578
#> 10    10 stationa…          1        0.0490      589        589
#> # … with 990 more rows, and 2 more variables: rRNA_relabund <dbl>,
#> #   ratio <dbl>
```
…
1.  Only integer rDNA abundance are permitted (Steven et al. allowed
    fractional abundances)
2.  The ribosome amplification value for each metabolic state is drawn
    from a uniform distribution (Steven et al. selected at random one of
    three discrete values representing low, medium and high
    amplification)

# Simulating a sequencing-based sampling experiment

``` r
comm <- generate_community(1000)
sample_community(comm, nDNA = 500, nRNA = 500)
#> # A tibble: 1,000 x 9
#>      OTU met_state rDNA_abund rDNA_relabund ribo_amp rRNA_abund
#>    <int> <chr>          <int>         <dbl>    <int>      <int>
#>  1     1 dormant            2           0.4      100          0
#>  2     2 stationa…          2           0.4      767          1
#>  3     3 dead               0           0          1          0
#>  4     4 dead               0           0          1          0
#>  5     5 stationa…          2           0.4      322          0
#>  6     6 growing            1           0.2     5326          3
#>  7     7 dead               0           0          1          0
#>  8     8 stationa…          0           0        564          0
#>  9     9 growing            1           0.2     3334          0
#> 10    10 growing            0           0       4521          0
#> # … with 990 more rows, and 3 more variables: rRNA_relabund <dbl>,
#> #   ratio <dbl>, phantom <lgl>
```
…
